<?xml version="1.0" encoding="UTF-8"?>
<CustomTab xmlns="http://soap.sforce.com/2006/04/metadata">
    <description>Access to KnowWho&apos;s Zip to District Reporting Service on Credits and Records Processed via ZDM</description>
    <label>Zip to District Reports</label>
    <mobileReady>false</mobileReady>
    <motif>Custom79: Measuring Tape</motif>
    <page>KWD_ZDM_Reports</page>
</CustomTab>
